testSumador/simulation/qsim/testSumador.msim.vcd
$comment
	File created using the following command:
		vcd file testSumador.msim.vcd -direction
$end
$date
	Tue Mar 05 19:05:21 2024
$end
$version
	ModelSim Version 10.1d
$end
$timescale
	1ps
$end
$scope module testSumador_vlg_vec_tst $end
$var reg 4 ! A [3:0] $end
$var reg 4 " B [3:0] $end
$var reg 1 # Cin $end
$var wire 1 $ DC [6] $end
$var wire 1 % DC [5] $end
$var wire 1 & DC [4] $end
$var wire 1 ' DC [3] $end
$var wire 1 ( DC [2] $end
$var wire 1 ) DC [1] $end
$var wire 1 * DC [0] $end
$var wire 1 + UN [6] $end
$var wire 1 , UN [5] $end
$var wire 1 - UN [4] $end
$var wire 1 . UN [3] $end
$var wire 1 / UN [2] $end
$var wire 1 0 UN [1] $end
$var wire 1 1 UN [0] $end
$var wire 1 2 sampler $end
$scope module i1 $end
$var wire 1 3 gnd $end
$var wire 1 4 vcc $end
$var wire 1 5 unknown $end
$var tri1 1 6 devclrn $end
$var tri1 1 7 devpor $end
$var tri1 1 8 devoe $end
$var wire 1 9 UN[0]~output_o $end
$var wire 1 : UN[1]~output_o $end
$var wire 1 ; UN[2]~output_o $end
$var wire 1 < UN[3]~output_o $end
$var wire 1 = UN[4]~output_o $end
$var wire 1 > UN[5]~output_o $end
$var wire 1 ? UN[6]~output_o $end
$var wire 1 @ DC[0]~output_o $end
$var wire 1 A DC[1]~output_o $end
$var wire 1 B DC[2]~output_o $end
$var wire 1 C DC[3]~output_o $end
$var wire 1 D DC[4]~output_o $end
$var wire 1 E DC[5]~output_o $end
$var wire 1 F DC[6]~output_o $end
$var wire 1 G A[3]~input_o $end
$var wire 1 H B[3]~input_o $end
$var wire 1 I A[2]~input_o $end
$var wire 1 J B[2]~input_o $end
$var wire 1 K B[1]~input_o $end
$var wire 1 L A[0]~input_o $end
$var wire 1 M B[0]~input_o $end
$var wire 1 N Cin~input_o $end
$var wire 1 O A4|A0|cout~0_combout $end
$var wire 1 P A[1]~input_o $end
$var wire 1 Q A4|A1|cout~0_combout $end
$var wire 1 R A4|A2|cout~0_combout $end
$var wire 1 S A4|A3|cout~0_combout $end
$var wire 1 T A4|A3|cout~1_combout $end
$var wire 1 U A4|A3|HA2|Sum~combout $end
$var wire 1 V A4|A2|HA2|Sum~combout $end
$var wire 1 W A5|Div0|auto_generated|divider|divider|add_sub_3_result_int[1]~1 $end
$var wire 1 X A5|Div0|auto_generated|divider|divider|add_sub_3_result_int[2]~3 $end
$var wire 1 Y A5|Div0|auto_generated|divider|divider|add_sub_3_result_int[3]~5 $end
$var wire 1 Z A5|Div0|auto_generated|divider|divider|add_sub_3_result_int[4]~6_combout $end
$var wire 1 [ A5|Div0|auto_generated|divider|divider|add_sub_3_result_int[3]~4_combout $end
$var wire 1 \ A5|Div0|auto_generated|divider|divider|StageOut[18]~12_combout $end
$var wire 1 ] A5|Div0|auto_generated|divider|divider|StageOut[18]~19_combout $end
$var wire 1 ^ A5|Div0|auto_generated|divider|divider|StageOut[17]~15_combout $end
$var wire 1 _ A5|Div0|auto_generated|divider|divider|add_sub_3_result_int[2]~2_combout $end
$var wire 1 ` A5|Div0|auto_generated|divider|divider|StageOut[17]~13_combout $end
$var wire 1 a A5|Div0|auto_generated|divider|divider|add_sub_3_result_int[1]~0_combout $end
$var wire 1 b A5|Div0|auto_generated|divider|divider|StageOut[16]~14_combout $end
$var wire 1 c A5|Div0|auto_generated|divider|divider|StageOut[16]~16_combout $end
$var wire 1 d A5|Div0|auto_generated|divider|divider|StageOut[15]~17_combout $end
$var wire 1 e A5|Div0|auto_generated|divider|divider|StageOut[15]~18_combout $end
$var wire 1 f A5|Div0|auto_generated|divider|divider|add_sub_4_result_int[1]~1_cout $end
$var wire 1 g A5|Div0|auto_generated|divider|divider|add_sub_4_result_int[2]~3_cout $end
$var wire 1 h A5|Div0|auto_generated|divider|divider|add_sub_4_result_int[3]~5_cout $end
$var wire 1 i A5|Div0|auto_generated|divider|divider|add_sub_4_result_int[4]~7_cout $end
$var wire 1 j A5|Div0|auto_generated|divider|divider|add_sub_4_result_int[5]~8_combout $end
$var wire 1 k A6|Mux5~0_combout $end
$var wire 1 l A6|Mux3~0_combout $end
$var wire 1 m A6|Mux2~0_combout $end
$var wire 1 n A5|Mod0|auto_generated|divider|divider|add_sub_3_result_int[1]~1 $end
$var wire 1 o A5|Mod0|auto_generated|divider|divider|add_sub_3_result_int[2]~3 $end
$var wire 1 p A5|Mod0|auto_generated|divider|divider|add_sub_3_result_int[3]~5 $end
$var wire 1 q A5|Mod0|auto_generated|divider|divider|add_sub_3_result_int[4]~6_combout $end
$var wire 1 r A5|Mod0|auto_generated|divider|divider|StageOut[17]~20_combout $end
$var wire 1 s A5|Mod0|auto_generated|divider|divider|StageOut[18]~22_combout $end
$var wire 1 t A5|Mod0|auto_generated|divider|divider|add_sub_3_result_int[3]~4_combout $end
$var wire 1 u A5|Mod0|auto_generated|divider|divider|StageOut[18]~12_combout $end
$var wire 1 v A5|Mod0|auto_generated|divider|divider|add_sub_3_result_int[2]~2_combout $end
$var wire 1 w A5|Mod0|auto_generated|divider|divider|StageOut[17]~13_combout $end
$var wire 1 x A5|Mod0|auto_generated|divider|divider|StageOut[16]~21_combout $end
$var wire 1 y A5|Mod0|auto_generated|divider|divider|add_sub_3_result_int[1]~0_combout $end
$var wire 1 z A5|Mod0|auto_generated|divider|divider|StageOut[16]~14_combout $end
$var wire 1 { A5|Mod0|auto_generated|divider|divider|StageOut[15]~18_combout $end
$var wire 1 | A5|Mod0|auto_generated|divider|divider|StageOut[15]~19_combout $end
$var wire 1 } A5|Mod0|auto_generated|divider|divider|add_sub_4_result_int[1]~1 $end
$var wire 1 ~ A5|Mod0|auto_generated|divider|divider|add_sub_4_result_int[2]~3 $end
$var wire 1 !! A5|Mod0|auto_generated|divider|divider|add_sub_4_result_int[3]~5 $end
$var wire 1 "! A5|Mod0|auto_generated|divider|divider|add_sub_4_result_int[4]~7_cout $end
$var wire 1 #! A5|Mod0|auto_generated|divider|divider|add_sub_4_result_int[5]~8_combout $end
$var wire 1 $! A5|Mod0|auto_generated|divider|divider|add_sub_4_result_int[3]~4_combout $end
$var wire 1 %! A5|Mod0|auto_generated|divider|divider|StageOut[23]~17_combout $end
$var wire 1 &! A4|A0|HA2|Sum~0_combout $end
$var wire 1 '! A5|Mod0|auto_generated|divider|divider|add_sub_4_result_int[2]~2_combout $end
$var wire 1 (! A5|Mod0|auto_generated|divider|divider|StageOut[22]~16_combout $end
$var wire 1 )! A4|A1|HA2|Sum~combout $end
$var wire 1 *! A5|Mod0|auto_generated|divider|divider|add_sub_4_result_int[1]~0_combout $end
$var wire 1 +! A5|Mod0|auto_generated|divider|divider|StageOut[21]~15_combout $end
$var wire 1 ,! A7|Mux6~0_combout $end
$var wire 1 -! A7|Mux5~0_combout $end
$var wire 1 .! A7|Mux4~0_combout $end
$var wire 1 /! A7|Mux3~0_combout $end
$var wire 1 0! A7|Mux2~0_combout $end
$var wire 1 1! A7|Mux1~0_combout $end
$var wire 1 2! A7|Mux0~0_combout $end
$upscope $end
$upscope $end
$enddefinitions $end
#0
$dumpvars
b0 !
b0 "
0#
1*
0)
0(
0'
0&
0%
0$
11
00
0/
0.
0-
0,
0+
x2
03
14
x5
16
17
18
19
0:
0;
0<
0=
0>
0?
1@
0A
0B
0C
0D
0E
0F
0G
0H
0I
0J
0K
0L
0M
0N
0O
0P
0Q
0R
0S
0T
0U
0V
0W
1X
0Y
1Z
0[
0\
0]
0^
1_
0`
1a
0b
0c
0d
0e
0f
1g
0h
1i
1j
0k
0l
0m
0n
1o
0p
1q
0r
0s
0t
0u
1v
0w
0x
1y
0z
0{
0|
0}
1~
0!!
1"!
1#!
0$!
0%!
0&!
1'!
0(!
0)!
1*!
0+!
0,!
0-!
0.!
0/!
00!
01!
02!
$end
#5000
b1000 !
b1100 !
b1110 !
b1111 !
1L
1P
1I
1G
02
1&!
1)!
1{
1d
1x
1c
1V
1r
1^
1U
1+!
1}
0*!
1f
1(!
0~
0'!
0g
1n
0y
1W
0a
1%!
1$!
0o
0v
0X
0_
12!
1/!
1.!
1-!
1'!
1!!
0$!
1h
1v
1_
1t
1[
1F
1C
1B
1A
1$
1'
1(
1)
11!
10!
0"!
0i
1E
1D
1%
1&
0#!
0j
0+!
0%!
1;
1/
1l
1k
1,!
1?
1<
1:
1+
1.
10
02!
00!
0/!
0-!
0@
0F
0D
0C
0A
0*
0$
0&
0'
0)
#10000
b111 !
b11 !
b1 !
b0 !
0L
0P
0I
0G
12
0&!
0)!
0{
0d
0x
0c
0V
0r
0^
0U
0}
1*!
0f
0'!
0n
1y
0W
1a
0!!
1$!
0h
0v
0_
12!
01!
1/!
1~
1'!
1+!
1g
0(!
1o
1v
1X
1_
1"!
1%!
1i
1F
0E
1C
1$
0%
1'
0$!
1(!
0,!
0t
0[
1#!
1j
11!
10!
1-!
0%!
0+!
0(!
1@
0;
1E
1D
1A
1*
0/
1%
1&
1)
0l
0k
0?
0<
0:
0+
0.
00
02!
01!
00!
0/!
0.!
0-!
0F
0E
0D
0C
0B
0A
0$
0%
0&
0'
0(
0)
#15000
b1000 "
b1100 "
b1110 "
b1111 "
b1000 !
b1100 !
b1110 !
b1111 !
1L
1P
1I
1G
1M
1K
1J
1H
02
1O
1Q
1R
1s
1]
1T
1)!
1{
1d
1x
1c
1V
1r
1^
1U
1S
0"!
0i
1t
1[
1+!
1}
0*!
1f
1(!
0~
0'!
0g
1n
0y
1W
0a
1%!
1$!
0o
0v
0X
0_
0#!
0j
1'!
0+!
1!!
0$!
0(!
1h
1v
1_
1p
0t
1Y
0[
1;
1/
12!
11!
10!
1/!
1.!
1-!
1l
1k
1(!
1,!
0%!
0q
1F
1E
1D
1C
1B
1A
1?
1<
1:
1$
1%
1&
1'
1(
1)
1+
1.
10
02!
01!
00!
0/!
0.!
0-!
0Z
1|
0{
0x
1w
0s
0r
1e
0d
0c
1`
0^
0]
0@
0F
0E
0D
0C
0B
0A
09
0*
0$
0%
0&
0'
0(
0)
01
12!
1/!
1.!
0l
0'!
1F
1C
1B
0?
0<
1$
1'
1(
0+
0.
0(!
0,!
02!
0/!
0.!
1@
0F
0C
0B
1*
0$
0'
0(
#20000
b111 !
b11 !
b1 !
b0 !
0L
0P
0I
0G
12
1&!
0O
0)!
0|
0e
0V
0U
0T
1)!
1|
1e
0Q
0}
1*!
0f
0n
1y
0W
1a
0v
0_
12!
1/!
1.!
1-!
1+!
1}
0*!
1f
1V
0R
1~
1'!
1g
1o
1v
1z
1X
1_
1b
0w
0`
1F
1C
1B
1A
1$
1'
1(
1)
1,!
0~
0+!
0g
1n
0y
1W
0a
1U
0S
0!!
1(!
0h
0p
1t
1w
0Y
1[
1`
02!
0/!
1!!
1h
0o
0z
0X
0b
0t
0[
1"!
1i
1q
1u
1\
0@
0F
0C
0*
0$
0'
11!
0-!
1Z
0"!
0i
1t
0'!
1[
0u
0\
1#!
1j
0|
1{
1x
0w
1r
0e
1d
1c
0`
1^
1E
0A
19
1%
0)
11
1l
0#!
0j
1+!
1%!
1'!
0;
1?
1<
0/
1+
1.
0l
0k
0+!
0%!
0,!
1;
0?
0<
0:
1/
0+
0.
00
1l
1k
12!
10!
1/!
1-!
1,!
1@
1?
1<
1:
1F
1D
1C
1A
1*
1+
1.
10
1$
1&
1'
1)
02!
00!
0/!
0-!
0@
0F
0D
0C
0A
0*
0$
0&
0'
0)
#25000
1#
b1000 !
b1100 !
b1110 !
b1111 !
1N
1L
1P
1I
1G
02
1O
0)!
0{
0d
1Q
0x
0c
0V
1R
1s
0r
0^
1]
0U
1T
1)!
1{
1d
0}
1*!
0f
1x
1c
1V
0'!
0n
1y
0W
1a
1r
1^
1U
1S
0!!
1$!
0h
0v
0_
1p
0t
1Y
0[
1+!
1}
0*!
1f
0(!
1n
0y
1W
0a
1%!
1!!
0$!
1h
0q
0Z
0,!
1'!
0+!
1v
1_
0%!
1|
0{
0x
0s
0r
1e
0d
0c
0^
0]
09
01
12!
10!
1/!
1-!
0l
1(!
1w
1`
0'!
0!!
1$!
0h
1@
1F
1D
1C
1A
0?
0<
1*
1$
1&
1'
1)
0+
0.
01!
00!
1,!
1%!
1!!
0$!
1h
0(!
1"!
1i
0E
0D
0%
0&
02!
11!
0/!
0-!
0"!
0%!
0i
1#!
1j
0@
0F
1E
0C
0A
0*
0$
1%
0'
0)
01!
1/!
0#!
0,!
0j
1+!
1%!
0;
0E
1C
0/
0%
1'
12!
1-!
1m
0+!
0%!
1@
1;
1F
1A
1=
1*
1/
1$
1)
1-
0m
11!
10!
0=
1E
1D
0-
1%
1&
01!
00!
0E
0D
0%
0&
#30000
b111 "
b11 "
b1 "
b0 "
b111 !
b11 !
b1 !
b0 !
0L
0P
0I
0G
0M
0K
0J
0H
12
0O
0Q
0R
0T
0S
0)!
0|
0e
0V
0U
0p
1t
0Y
1[
0}
1*!
0f
0n
1y
0W
1a
0v
0_
1q
1u
1\
1Z
1~
1'!
1+!
1g
1o
1v
1X
1_
0w
0`
0u
0\
19
11
1l
0!!
1(!
1,!
0h
0t
0[
1?
1<
1+
1.
02!
0/!
1"!
0,!
1i
0@
0F
0C
0*
0$
0'
1/!
1#!
1j
1@
1C
1*
1'
0+!
0(!
0;
0/
0l
0k
0?
0<
0:
0+
0.
00
12!
1F
1$
#35000
b1000 !
b1100 !
b1110 !
b1111 !
1L
1P
1I
1G
02
0&!
1O
1)!
1{
1d
1x
1c
1V
1r
1^
1U
0)!
0{
0d
1Q
1+!
1}
0*!
1f
1(!
0~
0'!
0g
1n
0y
1W
0a
1%!
1$!
0o
0v
0X
0_
02!
0/!
0.!
0-!
0+!
0}
1*!
0f
0x
0c
0V
1R
1'!
1!!
0$!
1h
1v
1_
1t
1[
0F
0C
0B
0A
0$
0'
0(
0)
12!
11!
10!
1/!
1.!
1-!
1~
1g
0(!
0n
1y
0W
1a
1s
0r
0^
1]
0U
1S
0"!
0i
1F
1E
1D
1C
1B
1A
1$
1%
1&
1'
1(
1)
0!!
0h
1,!
1o
1X
0%!
1p
0t
1Y
0[
0#!
0j
02!
01!
00!
0/!
0.!
0-!
0p
1t
0Y
1[
0,!
0q
1+!
1(!
0@
1;
0F
0E
0D
0C
0B
0A
0*
1/
0$
0%
0&
0'
0(
0)
0Z
1l
1k
1q
1u
1\
1z
1w
0s
1,!
1b
1`
0]
1@
09
1?
1<
1:
1*
01
1+
1.
10
1Z
12!
11!
0l
0z
0w
0u
1s
0~
0'!
1$!
0g
0b
0`
1]
0\
0@
19
1F
1E
0?
0<
0*
11
1$
1%
0+
0.
1l
0(!
1~
1'!
1%!
1g
1?
1<
1+
1.
0,!
0$!
1(!
10!
1/!
1.!
1-!
0%!
1@
1D
1C
1B
1A
1*
1&
1'
1(
1)
1,!
00!
0/!
0.!
0-!
0@
0D
0C
0B
0A
0*
0&
0'
0(
0)
#40000
b111 !
b11 !
b1 !
b0 !
0L
0P
0I
0G
12
1&!
0O
1)!
1{
1d
0Q
1x
1c
1V
0R
0s
1r
1^
0]
1U
0S
0,!
0)!
0{
0d
1}
0*!
1f
0x
0c
0V
0~
0'!
0g
1n
0y
1W
0a
0r
0^
0U
1"!
1$!
1i
0o
0v
0X
0_
0t
0[
02!
01!
1/!
1.!
1-!
0+!
0}
1*!
0f
0(!
0n
1y
0W
1a
1%!
1#!
1j
1t
1[
1@
0F
0E
1C
1B
1A
1*
0$
0%
1'
1(
1)
1,!
1~
1'!
1g
1o
1v
1X
1_
0%!
0;
0/
0-!
0l
0k
0$!
0t
0[
0,!
0@
0A
0?
0<
0:
0*
0)
0+
0.
00
12!
1-!
1@
1F
1A
1*
1$
1)
#45000
b1000 "
b1100 "
b1110 "
b1111 "
b1000 !
b1100 !
b1110 !
b1111 !
1L
1P
1I
1G
1M
1K
1J
1H
02
1O
1Q
1R
1s
1]
1T
1)!
1{
1d
1x
1c
1V
1r
1^
1U
1S
0"!
0i
1t
1[
1+!
1}
0*!
1f
1(!
0~
0'!
0g
1n
0y
1W
0a
1%!
1$!
0o
0v
0X
0_
0#!
0j
1'!
0+!
1!!
0$!
0(!
1h
1v
1_
1p
0t
1Y
0[
1;
1/
11!
10!
1l
1k
1(!
1,!
0%!
0q
1E
1D
1?
1<
1:
1%
1&
1+
1.
10
02!
01!
00!
0-!
0Z
1|
0{
0x
1w
0s
0r
1e
0d
0c
1`
0^
0]
0@
0F
0E
0D
0A
09
0*
0$
0%
0&
0)
01
11!
0/!
0l
0'!
1E
0C
0?
0<
1%
0'
0+
0.
0(!
0,!
12!
01!
1/!
1-!
1@
1F
0E
1C
1A
1*
1$
0%
1'
1)
#50000
0#
b111 !
b11 !
b1 !
b0 !
0N
0L
0P
0I
0G
12
0O
0)!
0|
0e
0V
0U
0T
1)!
1|
1e
0Q
0}
1*!
0f
0n
1y
0W
1a
0v
0_
1+!
1}
0*!
1f
1V
0R
1~
1'!
1g
1o
1v
1z
1X
1_
1b
0w
0`
1,!
0~
0+!
0g
1n
0y
1W
0a
1U
0S
0!!
1(!
0h
0p
1t
1w
0Y
1[
1`
02!
0/!
1!!
1h
0o
0z
0X
0b
0t
0[
1"!
1i
1q
1u
1\
0@
0F
0C
0*
0$
0'
11!
0-!
1Z
0"!
0i
1t
0'!
1[
0u
0\
1#!
1j
0|
1{
1x
0w
1r
0e
1d
1c
0`
1^
1E
0A
19
1%
0)
11
1l
0#!
0j
1+!
1%!
1'!
0;
1?
1<
0/
1+
1.
0l
0k
0+!
0%!
0,!
1;
0?
0<
0:
1/
0+
0.
00
1l
1k
12!
10!
1/!
1-!
1,!
1@
1?
1<
1:
1F
1D
1C
1A
1*
1+
1.
10
1$
1&
1'
1)
02!
00!
0/!
0-!
0@
0F
0D
0C
0A
0*
0$
0&
0'
0)
#55000
b1000 !
b1100 !
b1110 !
b1111 !
1L
1P
1I
1G
02
0&!
1O
0)!
0{
0d
1Q
0x
0c
0V
1R
1s
0r
0^
1]
0U
1T
1)!
1{
1d
0}
1*!
0f
1x
1c
1V
0'!
0n
1y
0W
1a
1r
1^
1U
1S
0!!
1$!
0h
0v
0_
1p
0t
1Y
0[
12!
01!
1/!
1+!
1}
0*!
1f
0(!
1n
0y
1W
0a
1%!
1!!
0$!
1h
0q
1F
0E
1C
1$
0%
1'
0Z
0,!
1'!
0+!
1v
1_
0%!
1|
0{
0x
0s
0r
1e
0d
0c
0^
0]
09
01
11!
10!
1-!
0l
1(!
1w
1`
0'!
0!!
1$!
0h
1@
1E
1D
1A
0?
0<
1*
1%
1&
1)
0+
0.
02!
01!
00!
0/!
0.!
0-!
1,!
1%!
1!!
0$!
1h
0(!
1"!
1i
0F
0E
0D
0C
0B
0A
0$
0%
0&
0'
0(
0)
12!
1/!
1.!
0"!
0%!
0i
1#!
1j
0@
1F
1C
1B
0*
1$
1'
1(
02!
0/!
0.!
0#!
0,!
0j
1+!
1%!
0;
0F
0C
0B
0/
0$
0'
0(
1m
0+!
0%!
1@
1;
1=
1*
1/
1-
0m
12!
11!
10!
1/!
1.!
1-!
0=
1F
1E
1D
1C
1B
1A
0-
1$
1%
1&
1'
1(
1)
02!
01!
00!
0/!
0.!
0-!
0F
0E
0D
0C
0B
0A
0$
0%
0&
0'
0(
0)
#60000
b111 "
b11 "
b1 "
b0 "
b111 !
b11 !
b1 !
b0 !
0L
0P
0I
0G
0M
0K
0J
0H
12
0O
0Q
0R
0T
0S
0)!
0|
0e
0V
0U
0p
1t
0Y
1[
0}
1*!
0f
0n
1y
0W
1a
0v
0_
1q
1u
1\
1Z
1~
1'!
1+!
1g
1o
1v
1X
1_
0w
0`
0u
0\
19
11
1l
0!!
1(!
1,!
0h
0t
0[
1?
1<
1+
1.
10!
1-!
1"!
1i
0@
1D
1A
0*
1&
1)
12!
11!
00!
0-!
1#!
1j
1F
1E
0D
0A
1$
1%
0&
0)
0+!
0(!
0;
0/
0l
0k
0,!
0?
0<
0:
0+
0.
00
02!
01!
1@
0F
0E
1*
0$
0%
#65000
b1000 !
b1100 !
b1110 !
b1111 !
1L
1P
1I
1G
02
1&!
1)!
1{
1d
1x
1c
1V
1r
1^
1U
1+!
1}
0*!
1f
1(!
0~
0'!
0g
1n
0y
1W
0a
1%!
1$!
0o
0v
0X
0_
12!
1/!
1.!
1-!
1'!
1!!
0$!
1h
1v
1_
1t
1[
1F
1C
1B
1A
1$
1'
1(
1)
11!
10!
0"!
0i
1E
1D
1%
1&
0#!
0j
0+!
0%!
1;
1/
1l
1k
1,!
1?
1<
1:
1+
1.
10
02!
00!
0/!
0-!
0@
0F
0D
0C
0A
0*
0$
0&
0'
0)
#70000
b111 !
b11 !
b1 !
b0 !
0L
0P
0I
0G
12
0&!
0)!
0{
0d
0x
0c
0V
0r
0^
0U
0}
1*!
0f
0'!
0n
1y
0W
1a
0!!
1$!
0h
0v
0_
12!
01!
1/!
1~
1'!
1+!
1g
0(!
1o
1v
1X
1_
1"!
1%!
1i
1F
0E
1C
1$
0%
1'
0$!
1(!
0,!
0t
0[
1#!
1j
11!
10!
1-!
0%!
0+!
0(!
1@
0;
1E
1D
1A
1*
0/
1%
1&
1)
0l
0k
0?
0<
0:
0+
0.
00
02!
01!
00!
0/!
0.!
0-!
0F
0E
0D
0C
0B
0A
0$
0%
0&
0'
0(
0)
#75000
1#
b1000 "
b1100 "
b1110 "
b1111 "
b1000 !
b1100 !
b1110 !
b1111 !
1N
1L
1P
1I
1G
1M
1K
1J
1H
02
1&!
1O
1Q
1R
1s
1]
1T
1)!
1{
1d
1x
1c
1V
1r
1^
1U
1S
0"!
0i
1t
1[
12!
1/!
1.!
1-!
1+!
1}
0*!
1f
1(!
0~
0'!
0g
1n
0y
1W
0a
1%!
1$!
0o
0v
0X
0_
0#!
0j
1F
1C
1B
1A
1$
1'
1(
1)
1'!
0+!
1!!
0$!
0(!
1h
1v
1_
1p
0t
1Y
0[
1;
1/
11!
10!
1l
1k
1(!
1,!
0%!
0q
1E
1D
1?
1<
1:
1%
1&
1+
1.
10
02!
01!
00!
0-!
0Z
1|
0{
0x
1w
0s
0r
1e
0d
0c
1`
0^
0]
0@
0F
0E
0D
0A
09
0*
0$
0%
0&
0)
01
11!
0/!
0l
0'!
1E
0C
0?
0<
1%
0'
0+
0.
0(!
0,!
12!
01!
1/!
1-!
1@
1F
0E
1C
1A
1*
1$
0%
1'
1)
#80000
b111 !
b11 !
b1 !
b0 !
0L
0P
0I
0G
12
0&!
0)!
0|
0e
0V
0U
0T
0}
1*!
0f
0n
1y
0W
1a
0v
0_
02!
0/!
0.!
0-!
1~
1'!
1+!
1g
1o
1v
1z
1X
1_
1b
0w
0`
0F
0C
0B
0A
0$
0'
0(
0)
0!!
1(!
1,!
0h
0p
1t
1w
0~
0'!
0Y
1[
1`
0g
10!
1-!
1"!
1i
1q
1u
1!!
0(!
1\
1h
0@
1D
1A
0*
1&
1)
12!
11!
00!
0-!
1Z
1#!
1j
0z
0w
0u
1s
0"!
0i
0b
0`
1]
0\
1F
1E
0D
0A
19
1$
1%
0&
0)
11
02!
01!
10!
1-!
1l
0+!
1~
1'!
0!!
1$!
0#!
0j
1g
0h
0;
0F
0E
1D
1A
1?
1<
0/
0$
0%
1&
1)
1+
1.
0l
0k
0,!
0$!
1(!
1%!
1+!
1;
0?
0<
0:
1/
0+
0.
00
00!
0-!
1l
1k
0%!
1@
0D
0A
1?
1<
1:
1*
0&
0)
1+
1.
10
12!
11!
10!
1/!
1.!
1-!
1,!
1F
1E
1D
1C
1B
1A
1$
1%
1&
1'
1(
1)
00!
0/!
0.!
0-!
0@
0D
0C
0B
0A
0*
0&
0'
0(
0)
#85000
b1000 !
b1100 !
b1110 !
b1111 !
1L
1P
1I
1G
02
1&!
1)!
1{
1d
1x
1c
1V
1r
1^
1U
1T
0,!
1}
0*!
1f
0~
0'!
0g
1n
0y
1W
0a
1$!
0o
0v
0X
0_
02!
01!
1/!
1.!
1-!
1'!
0+!
1!!
0$!
0(!
1h
1v
1_
1%!
1p
0t
1Y
0[
1@
0F
0E
1C
1B
1A
1*
0$
0%
1'
1(
1)
1(!
1,!
0%!
0q
0-!
0Z
1|
0{
0x
1w
0s
0r
1e
0d
0c
1`
0^
0]
0@
0A
09
0*
0)
01
11!
0/!
0l
0'!
1E
0C
0?
0<
1%
0'
0+
0.
0(!
0,!
12!
01!
1/!
1-!
1@
1F
0E
1C
1A
1*
1$
0%
1'
1)
#90000
b111 "
b11 "
b1 "
b0 "
b111 !
b11 !
b1 !
b0 !
0L
0P
0I
0G
0M
0K
0J
0H
12
0O
0Q
0R
0T
0S
0)!
0|
0e
0V
0U
0p
1t
0Y
1[
0}
1*!
0f
0n
1y
0W
1a
0v
0_
1q
1u
1\
1Z
1~
1'!
1+!
1g
1o
1v
1X
1_
0w
0`
0u
0\
19
11
1l
0!!
1(!
1,!
0h
0t
0[
1?
1<
1+
1.
02!
0/!
1"!
0,!
1i
0@
0F
0C
0*
0$
0'
1/!
1#!
1j
1@
1C
1*
1'
0+!
0(!
0;
0/
0l
0k
0?
0<
0:
0+
0.
00
12!
1F
1$
#95000
b1000 !
b1100 !
b1110 !
b1111 !
1L
1P
1I
1G
02
0&!
1O
1)!
1{
1d
1x
1c
1V
1r
1^
1U
0)!
0{
0d
1Q
1+!
1}
0*!
1f
1(!
0~
0'!
0g
1n
0y
1W
0a
1%!
1$!
0o
0v
0X
0_
02!
0/!
0.!
0-!
0+!
0}
1*!
0f
0x
0c
0V
1R
1'!
1!!
0$!
1h
1v
1_
1t
1[
0F
0C
0B
0A
0$
0'
0(
0)
12!
11!
10!
1/!
1.!
1-!
1~
1g
0(!
0n
1y
0W
1a
1s
0r
0^
1]
0U
1S
0"!
0i
1F
1E
1D
1C
1B
1A
1$
1%
1&
1'
1(
1)
0!!
0h
1,!
1o
1X
0%!
1p
0t
1Y
0[
0#!
0j
02!
01!
00!
0/!
0.!
0-!
0p
1t
0Y
1[
0,!
0q
1+!
1(!
0@
1;
0F
0E
0D
0C
0B
0A
0*
1/
0$
0%
0&
0'
0(
0)
0Z
1l
1k
1q
1u
1\
1z
1w
0s
1,!
1b
1`
0]
1@
09
1?
1<
1:
1*
01
1+
1.
10
1Z
12!
11!
0l
0z
0w
0u
1s
0~
0'!
1$!
0g
0b
0`
1]
0\
0@
19
1F
1E
0?
0<
0*
11
1$
1%
0+
0.
1l
0(!
1~
1'!
1%!
1g
1?
1<
1+
1.
0,!
0$!
1(!
10!
1/!
1.!
1-!
0%!
1@
1D
1C
1B
1A
1*
1&
1'
1(
1)
1,!
00!
0/!
0.!
0-!
0@
0D
0C
0B
0A
0*
0&
0'
0(
0)
#100000
0#
b111 !
b11 !
b1 !
b0 !
0N
0L
0P
0I
0G
12
0O
1)!
1{
1d
0Q
1x
1c
1V
0R
0s
1r
1^
0]
1U
0S
0)!
0{
0d
1}
0*!
1f
0x
0c
0V
0~
0'!
0g
1n
0y
1W
0a
0r
0^
0U
1"!
1$!
1i
0o
0v
0X
0_
0t
0[
0+!
0}
1*!
0f
0(!
0n
1y
0W
1a
1%!
1#!
1j
1t
1[
1~
1'!
1g
1o
1v
1X
1_
0%!
0;
0/
02!
01!
0l
0k
0$!
0t
0[
0,!
0F
0E
0?
0<
0:
0$
0%
0+
0.
00
1@
1*
#105000
b1000 "
b1100 "
b1110 "
b1111 "
b1000 !
b1100 !
b1110 !
b1111 !
1L
1P
1I
1G
1M
1K
1J
1H
02
1O
1Q
1R
1s
1]
1T
1)!
1{
1d
1x
1c
1V
1r
1^
1U
1S
0"!
0i
1t
1[
1+!
1}
0*!
1f
1(!
0~
0'!
0g
1n
0y
1W
0a
1%!
1$!
0o
0v
0X
0_
0#!
0j
1'!
0+!
1!!
0$!
0(!
1h
1v
1_
1p
0t
1Y
0[
1;
1/
12!
11!
10!
1/!
1.!
1-!
1l
1k
1(!
1,!
0%!
0q
1F
1E
1D
1C
1B
1A
1?
1<
1:
1$
1%
1&
1'
1(
1)
1+
1.
10
02!
01!
00!
0/!
0.!
0-!
0Z
1|
0{
0x
1w
0s
0r
1e
0d
0c
1`
0^
0]
0@
0F
0E
0D
0C
0B
0A
09
0*
0$
0%
0&
0'
0(
0)
01
12!
1/!
1.!
0l
0'!
1F
1C
1B
0?
0<
1$
1'
1(
0+
0.
0(!
0,!
02!
0/!
0.!
1@
0F
0C
0B
1*
0$
0'
0(
#110000
b111 !
b11 !
b1 !
b0 !
0L
0P
0I
0G
12
1&!
0O
0)!
0|
0e
0V
0U
0T
1)!
1|
1e
0Q
0}
1*!
0f
0n
1y
0W
1a
0v
0_
12!
1/!
1.!
1-!
1+!
1}
0*!
1f
1V
0R
1~
1'!
1g
1o
1v
1z
1X
1_
1b
0w
0`
1F
1C
1B
1A
1$
1'
1(
1)
1,!
0~
0+!
0g
1n
0y
1W
0a
1U
0S
0!!
1(!
0h
0p
1t
1w
0Y
1[
1`
02!
0/!
1!!
1h
0o
0z
0X
0b
0t
0[
1"!
1i
1q
1u
1\
0@
0F
0C
0*
0$
0'
11!
0-!
1Z
0"!
0i
1t
0'!
1[
0u
0\
1#!
1j
0|
1{
1x
0w
1r
0e
1d
1c
0`
1^
1E
0A
19
1%
0)
11
1l
0#!
0j
1+!
1%!
1'!
0;
1?
1<
0/
1+
1.
0l
0k
0+!
0%!
0,!
1;
0?
0<
0:
1/
0+
0.
00
1l
1k
12!
10!
1/!
1-!
1,!
1@
1?
1<
1:
1F
1D
1C
1A
1*
1+
1.
10
1$
1&
1'
1)
02!
00!
0/!
0-!
0@
0F
0D
0C
0A
0*
0$
0&
0'
0)
