tablasum/simulation/qsim/tablasum.msim.vcd
$comment
	File created using the following command:
		vcd file tablasum.msim.vcd -direction
$end
$date
	Tue Mar 05 19:02:55 2024
$end
$version
	ModelSim Version 10.1d
$end
$timescale
	1ps
$end
$scope module tablasum_vlg_vec_tst $end
$var reg 5 ! sum [4:0] $end
$var wire 1 " D [3] $end
$var wire 1 # D [2] $end
$var wire 1 $ D [1] $end
$var wire 1 % D [0] $end
$var wire 1 & U [3] $end
$var wire 1 ' U [2] $end
$var wire 1 ( U [1] $end
$var wire 1 ) U [0] $end
$var wire 1 * sampler $end
$scope module i1 $end
$var wire 1 + gnd $end
$var wire 1 , vcc $end
$var wire 1 - unknown $end
$var tri1 1 . devclrn $end
$var tri1 1 / devpor $end
$var tri1 1 0 devoe $end
$var wire 1 1 D[0]~output_o $end
$var wire 1 2 D[1]~output_o $end
$var wire 1 3 D[2]~output_o $end
$var wire 1 4 D[3]~output_o $end
$var wire 1 5 U[0]~output_o $end
$var wire 1 6 U[1]~output_o $end
$var wire 1 7 U[2]~output_o $end
$var wire 1 8 U[3]~output_o $end
$var wire 1 9 sum[4]~input_o $end
$var wire 1 : sum[3]~input_o $end
$var wire 1 ; sum[2]~input_o $end
$var wire 1 < Div0|auto_generated|divider|divider|add_sub_3_result_int[1]~1 $end
$var wire 1 = Div0|auto_generated|divider|divider|add_sub_3_result_int[2]~3 $end
$var wire 1 > Div0|auto_generated|divider|divider|add_sub_3_result_int[3]~4_combout $end
$var wire 1 ? Div0|auto_generated|divider|divider|add_sub_3_result_int[3]~5 $end
$var wire 1 @ Div0|auto_generated|divider|divider|add_sub_3_result_int[4]~6_combout $end
$var wire 1 A Div0|auto_generated|divider|divider|StageOut[18]~1_combout $end
$var wire 1 B Div0|auto_generated|divider|divider|StageOut[18]~0_combout $end
$var wire 1 C Div0|auto_generated|divider|divider|add_sub_3_result_int[2]~2_combout $end
$var wire 1 D Div0|auto_generated|divider|divider|StageOut[17]~3_combout $end
$var wire 1 E Div0|auto_generated|divider|divider|StageOut[17]~2_combout $end
$var wire 1 F Div0|auto_generated|divider|divider|StageOut[16]~4_combout $end
$var wire 1 G Div0|auto_generated|divider|divider|add_sub_3_result_int[1]~0_combout $end
$var wire 1 H Div0|auto_generated|divider|divider|StageOut[16]~5_combout $end
$var wire 1 I sum[1]~input_o $end
$var wire 1 J Div0|auto_generated|divider|divider|StageOut[15]~6_combout $end
$var wire 1 K Div0|auto_generated|divider|divider|StageOut[15]~7_combout $end
$var wire 1 L Div0|auto_generated|divider|divider|add_sub_4_result_int[1]~1_cout $end
$var wire 1 M Div0|auto_generated|divider|divider|add_sub_4_result_int[2]~3_cout $end
$var wire 1 N Div0|auto_generated|divider|divider|add_sub_4_result_int[3]~5_cout $end
$var wire 1 O Div0|auto_generated|divider|divider|add_sub_4_result_int[4]~7_cout $end
$var wire 1 P Div0|auto_generated|divider|divider|add_sub_4_result_int[5]~8_combout $end
$var wire 1 Q sum[0]~input_o $end
$var wire 1 R Mod0|auto_generated|divider|divider|add_sub_3_result_int[1]~1 $end
$var wire 1 S Mod0|auto_generated|divider|divider|add_sub_3_result_int[2]~3 $end
$var wire 1 T Mod0|auto_generated|divider|divider|add_sub_3_result_int[3]~5 $end
$var wire 1 U Mod0|auto_generated|divider|divider|add_sub_3_result_int[4]~6_combout $end
$var wire 1 V Mod0|auto_generated|divider|divider|StageOut[15]~1_combout $end
$var wire 1 W Mod0|auto_generated|divider|divider|StageOut[15]~0_combout $end
$var wire 1 X Mod0|auto_generated|divider|divider|add_sub_4_result_int[1]~0_combout $end
$var wire 1 Y Mod0|auto_generated|divider|divider|StageOut[18]~2_combout $end
$var wire 1 Z Mod0|auto_generated|divider|divider|add_sub_3_result_int[3]~4_combout $end
$var wire 1 [ Mod0|auto_generated|divider|divider|StageOut[18]~3_combout $end
$var wire 1 \ Mod0|auto_generated|divider|divider|add_sub_3_result_int[2]~2_combout $end
$var wire 1 ] Mod0|auto_generated|divider|divider|StageOut[17]~5_combout $end
$var wire 1 ^ Mod0|auto_generated|divider|divider|StageOut[17]~4_combout $end
$var wire 1 _ Mod0|auto_generated|divider|divider|add_sub_3_result_int[1]~0_combout $end
$var wire 1 ` Mod0|auto_generated|divider|divider|StageOut[16]~7_combout $end
$var wire 1 a Mod0|auto_generated|divider|divider|StageOut[16]~6_combout $end
$var wire 1 b Mod0|auto_generated|divider|divider|add_sub_4_result_int[1]~1 $end
$var wire 1 c Mod0|auto_generated|divider|divider|add_sub_4_result_int[2]~3 $end
$var wire 1 d Mod0|auto_generated|divider|divider|add_sub_4_result_int[3]~5 $end
$var wire 1 e Mod0|auto_generated|divider|divider|add_sub_4_result_int[4]~7_cout $end
$var wire 1 f Mod0|auto_generated|divider|divider|add_sub_4_result_int[5]~8_combout $end
$var wire 1 g Mod0|auto_generated|divider|divider|StageOut[21]~8_combout $end
$var wire 1 h Mod0|auto_generated|divider|divider|add_sub_4_result_int[2]~2_combout $end
$var wire 1 i Mod0|auto_generated|divider|divider|StageOut[22]~9_combout $end
$var wire 1 j Mod0|auto_generated|divider|divider|add_sub_4_result_int[3]~4_combout $end
$var wire 1 k Mod0|auto_generated|divider|divider|StageOut[23]~10_combout $end
$upscope $end
$upscope $end
$enddefinitions $end
#0
$dumpvars
b0 !
0%
0$
0#
0"
0)
0(
0'
0&
x*
0+
1,
x-
1.
1/
10
01
02
03
04
05
06
07
08
09
0:
0;
0<
1=
0>
0?
1@
0A
0B
1C
0D
0E
0F
1G
0H
0I
0J
0K
0L
1M
0N
1O
1P
0Q
0R
1S
0T
1U
0V
0W
1X
0Y
0Z
0[
1\
0]
0^
1_
0`
0a
0b
1c
0d
1e
1f
0g
1h
0i
0j
0k
$end
#5000
b1 !
0*
1Q
15
1)
#10000
b11 !
b10 !
1I
1*
0Q
1W
1J
05
0)
1g
1b
0X
1L
16
1(
0c
0h
0M
1j
#15000
b110 !
b111 !
1;
0*
1Q
1a
1R
0_
1F
1<
0G
15
1)
1h
0S
0\
0=
0C
1i
1Z
1>
17
1'
#20000
b1111 !
b1101 !
b1100 !
0I
1:
1*
0Q
0W
0J
1^
1\
1E
1C
05
0)
0g
0b
1X
0L
1d
0j
1N
06
0(
1k
0h
0e
0O
18
1&
0f
0P
11
1%
0k
0i
1g
08
07
16
0&
0'
1(
#25000
b11100 !
b11101 !
19
0*
1Q
1Y
1T
0Z
1B
1?
0>
15
1)
0U
0@
0a
0^
1]
0Y
0F
0E
1D
0B
12
1$
1c
1h
1M
0d
1j
0N
1i
1e
1O
17
1'
1k
1f
1P
18
1&
01
0%
0i
0g
07
06
0'
0(
#30000
b11001 !
b11011 !
b11010 !
1I
0;
1*
0Q
1V
1K
0R
1_
0<
1G
05
0)
1g
1b
0X
1L
0\
1`
0C
1H
16
1(
0c
0M
0]
0D
1i
17
1'
0k
08
0&
#35000
b11011 !
0*
1Q
15
1)
#40000
b10011 !
b10001 !
b10000 !
0I
0:
1*
0Q
0V
0K
1S
1\
1=
1C
05
0)
0g
0b
1X
0L
0T
1Z
1]
0?
1>
1D
06
0(
0h
1U
1[
1d
0j
1@
1A
1N
1k
0`
0]
0[
1Y
0e
0H
0D
1B
0A
0O
02
18
0$
1&
1c
1h
0d
1j
0f
1M
0N
0P
0i
0k
0j
11
07
08
1%
0'
0&
1i
1k
1g
17
18
16
1'
1&
1(
0k
08
0&
#45000
b10100 !
b10101 !
1;
0*
1Q
1a
1R
0_
1F
1<
0G
15
1)
0c
0h
0S
0\
0M
0=
0C
1j
1T
0Z
1?
0>
0i
0U
0@
07
0'
1k
0a
0Y
0F
0B
12
18
1$
1&
1c
1h
1e
1M
1O
0j
1f
1P
1i
01
17
0%
1'
0k
0i
0g
08
07
06
0&
0'
0(
#50000
b101 !
b111 !
b110 !
1I
09
1*
0Q
1V
1K
0T
1Z
0?
1>
05
0)
1g
1b
0X
1L
1U
1[
1@
1A
16
1(
0c
0h
0M
1a
0[
1W
0V
0e
0K
1J
1F
0A
0O
02
0$
1j
1h
1e
0f
1O
0P
1i
1f
1P
11
17
1%
1'
1k
0g
01
18
06
0%
1&
0(
0k
1g
08
16
0&
1(
#55000
b111 !
0*
1Q
15
1)
#60000
b1111 !
b1011 !
b1001 !
b1000 !
0I
0;
1:
1*
0Q
0W
0J
0a
0R
1_
0F
0<
1G
1^
1\
1E
1C
05
0)
0g
0b
1X
0L
0h
0\
0C
1d
0j
1N
06
0(
0i
1k
1c
1h
1M
0e
0O
07
18
0'
1&
0d
1j
0N
0f
0P
1e
1O
11
1%
1i
1g
1f
1P
17
16
1'
1(
01
0%
0i
0g
07
06
0'
0(
#65000
b1001 !
0*
1Q
15
1)
#70000
b1011 !
b1010 !
1I
1*
0Q
1W
1J
05
0)
1g
1b
0X
1L
16
1(
0c
0h
0M
1d
0j
1N
0e
0O
0f
0P
11
1%
0k
0g
08
06
0&
0(
#75000
b11010 !
b11110 !
b11111 !
1;
19
0*
1Q
1a
1R
0_
1F
1<
0G
1Y
1T
0Z
1B
1?
0>
15
1)
1h
1\
1C
0U
0@
1]
1D
0a
0^
0Y
0W
1V
1K
0J
0F
0E
0B
12
1$
1i
0h
17
1'
0i
07
0'
#80000
b10111 !
b10101 !
b10100 !
0I
0:
1*
0Q
0V
0K
0\
0C
05
0)
0b
1X
0L
0]
0D
1c
1h
1M
0d
1j
0N
1g
0j
1e
1O
16
1(
1i
1k
1f
1P
17
18
1'
1&
0k
01
08
0%
0&
0i
0g
07
06
0'
0(
#85000
b10101 !
0*
1Q
15
1)
#90000
b10001 !
b10011 !
b10010 !
1I
0;
1*
0Q
1V
1K
0R
1_
0<
1G
05
0)
1g
1b
0X
1L
1S
1\
1`
1=
1C
1H
16
1(
0c
0M
0T
1Z
1]
0?
1>
1D
1i
1d
1N
1U
1[
1@
1A
17
1'
1k
0e
0O
0`
0]
0[
1Y
1W
0V
0K
1J
0H
0D
1B
0A
02
18
0$
1&
0f
0P
0h
0d
1j
0N
0i
0k
11
07
08
1%
0'
0&
1k
0g
18
06
1&
0(
#95000
b10011 !
0*
1Q
15
1)
#100000
b11 !
b1011 !
b1001 !
b1000 !
0I
1:
09
1*
0Q
0W
0J
1^
0S
0\
1E
0=
0C
0Y
0Z
0B
0>
05
0)
0b
1X
0L
1d
0j
1Z
1N
1>
1e
1O
1c
1h
1M
0e
0O
1f
1P
1g
0k
0d
1j
0N
0f
0P
01
16
08
0%
1(
0&
1k
0g
1e
1O
11
18
06
1%
1&
0(
1i
1g
1f
1P
17
16
1'
1(
01
0%
0i
0g
07
06
0'
0(
#105000
b1100 !
b1101 !
1;
0*
1Q
1a
1R
0_
1F
1<
0G
15
1)
0c
0h
1\
0M
1C
1i
1d
0j
1N
17
1'
0e
0O
0f
0P
11
1%
0k
0i
1g
08
07
16
0&
0'
1(
#110000
b1111 !
b1110 !
1I
1*
0Q
1W
1J
05
0)
1b
0X
1L
1h
0g
06
0(
1i
17
1'
#115000
b1111 !
0*
1Q
15
1)
#120000
b111 !
b11 !
b1 !
b0 !
0I
0;
0:
1*
0Q
0W
0J
0a
0R
1_
0F
0<
1G
0^
0\
0E
0C
05
0)
0b
1X
0L
0h
1S
1\
1=
1C
0d
1j
0N
1c
1h
1M
0Z
0>
1e
1O
1g
0i
1k
0j
1f
1P
16
07
18
1(
0'
1&
1i
01
17
0%
1'
0k
0i
0g
08
07
06
0&
0'
0(
#125000
b10000 !
b10001 !
19
0*
1Q
1Y
1Z
1B
1>
15
1)
0e
0O
0f
0P
11
1%
1i
1g
17
16
1'
1(
#130000
b10011 !
b10010 !
1I
1*
0Q
1W
1J
05
0)
1b
0X
1L
0c
0h
0M
0g
1j
06
0(
0i
07
0'
1k
18
1&
#135000
b10110 !
b10111 !
1;
0*
1Q
1a
1R
0_
1F
1<
0G
15
1)
1h
0S
0\
0=
0C
1T
0Z
1?
0>
1i
0U
0@
17
1'
0a
0Y
0W
1V
1K
0J
0F
0B
12
1$
0h
1e
1O
1f
1P
0i
01
07
0%
0'
0k
1g
08
16
0&
1(
#140000
b11111 !
b11101 !
b11100 !
0I
1:
1*
0Q
0V
0K
1\
1C
05
0)
0g
0b
1X
0L
1]
1D
06
0(
1c
1h
1M
1d
0j
1N
1k
0d
1j
0N
0e
0O
18
1&
1e
1O
0f
0P
1f
1P
11
1%
1i
1g
01
17
16
0%
1'
1(
0i
0g
07
06
0'
0(
#145000
b11101 !
0*
1Q
15
1)
#150000
b1101 !
b1001 !
b1011 !
b1010 !
1I
0;
09
1*
0Q
1V
1K
0R
1_
0<
1G
0T
1Z
0?
1>
05
0)
1g
1b
0X
1L
0\
1`
0C
1H
1U
1[
1@
1A
16
1(
0c
0M
0]
0D
0`
1^
0[
1W
0V
0e
0K
1J
0H
1E
0A
0O
02
0$
1i
1d
0j
1N
0h
1e
0f
1O
0P
17
1'
0i
0e
0O
1f
1P
11
07
1%
0'
0k
0g
0f
0P
01
08
06
0%
0&
0(
1k
1g
11
18
16
1%
1&
1(
0k
0g
08
06
0&
0(
#155000
b1011 !
0*
1Q
15
1)
#160000
b11 !
b1 !
b0 !
0I
0:
1*
0Q
0W
0J
0^
1S
1\
0E
1=
1C
05
0)
0b
1X
0L
0d
1j
0Z
0N
0>
1c
1h
1M
1e
1O
1g
1k
0j
1f
1P
16
18
1(
1&
1i
01
17
0%
1'
0k
0i
0g
08
07
06
0&
0'
0(
#165000
b100 !
b101 !
1;
0*
1Q
1a
1R
0_
1F
1<
0G
15
1)
0c
0h
0S
0\
0M
0=
0C
1i
1j
1Z
1>
17
1'
#170000
b111 !
b110 !
1I
1*
0Q
1W
1J
05
0)
1g
1b
0X
1L
16
1(
1h
#175000
b10110 !
b10111 !
19
0*
1Q
1Y
1T
0Z
1B
1?
0>
15
1)
0e
0U
0O
0@
0f
0a
0Y
0W
1V
0P
1K
0J
0F
0B
12
1$
0h
1e
1O
11
1%
1k
0g
1f
1P
18
06
1&
0(
0i
01
07
0%
0'
0k
1g
08
16
0&
1(
#180000
b11111 !
b11011 !
b11001 !
b11000 !
0I
0;
1:
1*
0Q
0V
0K
0R
1_
0<
1G
1\
1C
05
0)
0g
0b
1X
0L
0\
1`
0C
1H
1]
1D
06
0(
0]
0D
1d
0j
1N
1i
1k
0d
1j
0N
0e
0O
17
18
1'
1&
0k
1e
1O
0f
0P
08
0&
1f
1P
11
1%
1k
0i
1g
01
18
07
16
0%
1&
0'
1(
0k
1i
0g
08
17
06
0&
1'
0(
#185000
b11001 !
0*
1Q
15
1)
#190000
b11011 !
b11010 !
1I
1*
0Q
1V
1K
05
0)
1g
1b
0X
1L
16
1(
1h
#195000
b11110 !
b11111 !
1;
0*
1Q
1R
0_
1<
0G
15
1)
1\
0`
1C
0H
1]
0h
1D
0i
1d
0j
1N
07
0'
1k
0e
0O
18
1&
0f
0P
11
1%
0k
0g
08
06
0&
0(
#200000
b1111 !
b111 !
b101 !
b100 !
0I
0:
09
1*
0Q
0V
0K
0\
0C
0T
1Z
0?
1>
05
0)
0b
1X
0L
0]
0D
1U
1[
1@
1A
1c
1h
1M
0d
1j
0N
1a
0[
1F
0A
02
0$
1g
0j
1e
1O
0c
0h
0M
16
1(
1i
1k
1f
1P
1j
17
18
1'
1&
0k
0i
01
08
07
0%
0&
0'
1i
0g
17
06
1'
0(
#205000
b101 !
0*
1Q
15
1)
#210000
b1 !
b11 !
b10 !
1I
0;
1*
0Q
1W
1J
0a
0R
1_
0F
0<
1G
05
0)
1g
1b
0X
1L
1c
1h
1S
1\
1M
1=
1C
16
1(
0i
0c
0h
0M
0j
0Z
0>
07
0'
1j
#215000
b11 !
0*
1Q
15
1)
#220000
b1011 !
b1001 !
b1000 !
0I
1:
1*
0Q
0W
0J
1^
0S
0\
1E
0=
0C
05
0)
0g
0b
1X
0L
1d
0j
1Z
1N
1>
06
0(
1k
1c
1h
1M
0e
0O
18
1&
0d
1j
0N
0f
0P
1e
1O
11
1%
1i
1g
1f
1P
17
16
1'
1(
01
0%
0i
0g
07
06
0'
0(
#225000
b11000 !
b11100 !
b11101 !
1;
19
0*
1Q
1a
1R
0_
1F
1<
0G
1Y
1T
0Z
1B
1?
0>
15
1)
0c
0h
1\
0M
1C
0e
0U
0O
0@
1i
1d
0j
1]
1N
1D
0f
0a
0^
0Y
0P
0F
0E
0B
12
17
1$
1'
1c
1h
1M
11
1%
0k
0i
1g
0d
1j
0N
08
07
16
0&
0'
1(
1i
1e
1O
17
1'
1k
1f
1P
18
1&
01
0%
0i
0g
07
06
0'
0(
#230000
b11111 !
b11110 !
1I
1*
0Q
1V
1K
05
0)
1g
1b
0X
1L
16
1(
0c
0h
0M
1d
0j
1N
0e
0O
0f
0P
11
1%
0k
0g
08
06
0&
0(
#235000
b11111 !
0*
1Q
15
1)
#240000
b10111 !
b10011 !
b10001 !
b10000 !
0I
0;
0:
1*
0Q
0V
0K
0R
1_
0<
1G
0\
0C
05
0)
0b
1X
0L
1S
1\
1`
1=
1C
1H
0]
0D
0T
1Z
1]
0?
1>
1D
0d
1j
0N
1g
1U
1[
1d
0j
1@
1A
1N
1e
1O
16
1(
1k
0`
0]
0[
1Y
0e
0H
0D
1B
0A
0O
1f
1P
02
18
0$
1&
0k
1c
1h
0d
1j
0f
1M
0N
0P
01
08
0%
0&
0g
0j
11
06
1%
0(
1i
1k
1g
17
18
16
1'
1&
1(
0k
08
0&
#245000
b10001 !
0*
1Q
15
1)
#250000
b1 !
b11 !
b10 !
1I
09
1*
0Q
1W
1J
0Y
0Z
0B
0>
05
0)
1b
0X
1L
1e
1O
0c
0h
0M
1f
1P
0g
1j
01
06
0%
0(
0i
1g
07
16
0'
1(
#255000
b110 !
b111 !
1;
0*
1Q
1a
1R
0_
1F
1<
0G
15
1)
1h
0S
0\
0=
0C
1i
1Z
1>
17
1'
#260000
b1111 !
b1101 !
b1100 !
0I
1:
1*
0Q
0W
0J
1^
1\
1E
1C
05
0)
0g
0b
1X
0L
1d
0j
1N
06
0(
1k
0h
0e
0O
18
1&
0f
0P
11
1%
0k
0i
1g
08
07
16
0&
0'
1(
#265000
b1101 !
0*
1Q
15
1)
#270000
b1001 !
b1011 !
b1010 !
1I
0;
1*
0Q
1W
1J
0a
0R
1_
0F
0<
1G
05
0)
1b
0X
1L
1c
1h
0\
1M
0C
0c
0h
0M
0d
1j
0N
0g
1i
1d
0j
1N
1e
1O
06
17
0(
1'
0i
1k
0e
0O
1f
1P
07
18
0'
1&
0k
0f
0P
01
08
0%
0&
1k
1g
11
18
16
1%
1&
1(
0k
0g
08
06
0&
0(
#275000
b11010 !
b11011 !
19
0*
1Q
1Y
1T
0Z
1B
1?
0>
15
1)
0U
0@
1`
0^
0Y
0W
1V
1K
0J
1H
0E
0B
12
1$
1h
0d
1j
0N
1e
1O
1i
1k
1f
1P
17
18
1'
1&
01
0%
0k
1g
08
16
0&
1(
#280000
b10011 !
b10001 !
b10000 !
0I
0:
1*
0Q
0V
0K
1S
1\
1=
1C
05
0)
0g
0b
1X
0L
0T
1Z
1]
0?
1>
1D
06
0(
0h
1U
1[
1d
0j
1@
1A
1N
1k
0`
0]
0[
1Y
0e
0H
0D
1B
0A
0O
02
18
0$
1&
1c
1h
0d
1j
0f
1M
0N
0P
0i
0k
0j
11
07
08
1%
0'
0&
1i
1k
1g
17
18
16
1'
1&
1(
0k
08
0&
#285000
b10100 !
b10101 !
1;
0*
1Q
1a
1R
0_
1F
1<
0G
15
1)
0c
0h
0S
0\
0M
0=
0C
1j
1T
0Z
1?
0>
0i
0U
0@
07
0'
1k
0a
0Y
0F
0B
12
18
1$
1&
1c
1h
1e
1M
1O
0j
1f
1P
1i
01
17
0%
1'
0k
0i
0g
08
07
06
0&
0'
0(
#290000
b10111 !
b10110 !
1I
1*
0Q
1V
1K
05
0)
1g
1b
0X
1L
16
1(
0c
0h
0M
1j
#295000
b10111 !
0*
1Q
15
1)
#300000
b111 !
b1111 !
b1011 !
b1001 !
b1000 !
0I
0;
1:
09
1*
0Q
0V
0K
0R
1_
0<
1G
1\
1C
0T
1Z
0?
1>
05
0)
0g
0b
1X
0L
0\
1`
0C
1H
1]
1D
1U
1[
1@
1A
06
0(
0]
0D
1d
0j
1N
0`
1^
0[
0e
0H
1E
0A
0O
02
0$
1i
1k
1c
1h
0f
1M
0P
17
18
1'
1&
0i
0d
1j
0N
11
07
1%
0'
1i
0k
1g
1e
1O
17
08
16
1'
0&
1(
1k
1f
1P
18
1&
01
0%
0i
0g
07
06
0'
0(
#305000
b1001 !
0*
1Q
15
1)
#310000
b1011 !
b1010 !
1I
1*
0Q
1W
1J
05
0)
1g
1b
0X
1L
16
1(
0c
0h
0M
1d
0j
1N
0e
0O
0f
0P
11
1%
0k
0g
08
06
0&
0(
#315000
b1110 !
b1111 !
1;
0*
1Q
1a
1R
0_
1F
1<
0G
15
1)
1h
1\
1C
1i
17
1'
#320000
b111 !
b101 !
b100 !
0I
0:
1*
0Q
0W
0J
0^
0\
0E
0C
05
0)
0b
1X
0L
0d
1j
0N
0h
1e
1O
1g
1k
1f
1P
16
18
1(
1&
0i
01
07
0%
0'
0k
1i
0g
08
17
06
0&
1'
0(
#325000
b10100 !
b10101 !
19
0*
1Q
1Y
1T
0Z
1B
1?
0>
15
1)
0e
0U
0O
0@
0f
0a
0Y
0P
0F
0B
12
1$
1c
1h
1e
1M
1O
11
1%
1k
0i
1g
0j
1f
1P
18
07
16
1&
0'
1(
1i
01
17
0%
1'
0k
0i
0g
08
07
06
0&
0'
0(
#330000
b10001 !
b10011 !
b10010 !
1I
0;
1*
0Q
1V
1K
0R
1_
0<
1G
05
0)
1g
1b
0X
1L
1S
1\
1`
1=
1C
1H
16
1(
0c
0M
0T
1Z
1]
0?
1>
1D
1i
1d
1N
1U
1[
1@
1A
17
1'
1k
0e
0O
0`
0]
0[
1Y
1W
0V
0K
1J
0H
0D
1B
0A
02
18
0$
1&
0f
0P
0h
0d
1j
0N
0i
0k
11
07
08
1%
0'
0&
1k
0g
18
06
1&
0(
#335000
b10011 !
0*
1Q
15
1)
#340000
b11011 !
b11001 !
b11000 !
0I
1:
1*
0Q
0W
0J
1^
0S
0\
1E
0=
0C
05
0)
0b
1X
0L
1d
0j
1T
0Z
1N
1?
0>
1c
1h
1M
0U
0@
1g
0k
0d
1j
0N
1`
0^
0Y
1H
0E
0B
12
16
08
1$
1(
0&
1i
1e
1O
0c
0h
0j
0M
17
1'
1k
1f
1P
1j
18
1&
0i
0k
01
07
08
0%
0'
0&
1i
0g
17
06
1'
0(
#345000
b11100 !
b11101 !
1;
0*
1Q
1R
0_
1<
0G
15
1)
1\
0`
1C
0H
1]
1c
1h
1D
1M
0i
07
0'
1k
18
1&
#350000
b1101 !
b1111 !
b1110 !
1I
09
1*
0Q
1V
1K
0T
1Z
0?
1>
05
0)
1g
1b
0X
1L
1U
1[
1@
1A
16
1(
0c
0h
0M
1a
1^
0]
0[
1W
0V
0e
0K
1J
1F
1E
0D
0A
0O
02
0$
1d
0j
1N
1h
1e
0f
1O
0P
1i
0e
0O
1f
1P
11
17
1%
1'
0k
0g
0f
0P
01
08
06
0%
0&
0(
1k
1g
11
18
16
1%
1&
1(
0k
0g
08
06
0&
0(
#355000
b1111 !
0*
1Q
15
1)
#360000
b111 !
b11 !
b1 !
b0 !
0I
0;
0:
1*
0Q
0W
0J
0a
0R
1_
0F
0<
1G
0^
0\
0E
0C
05
0)
0b
1X
0L
0h
1S
1\
1=
1C
0d
1j
0N
1c
1h
1M
0Z
0>
1e
1O
1g
0i
1k
0j
1f
1P
16
07
18
1(
0'
1&
1i
01
17
0%
1'
0k
0i
0g
08
07
06
0&
0'
0(
#365000
b1 !
0*
1Q
15
1)
#370000
b11 !
b10 !
1I
1*
0Q
1W
1J
05
0)
1g
1b
0X
1L
16
1(
0c
0h
0M
1j
#375000
b10010 !
b10110 !
b10111 !
1;
19
0*
1Q
1a
1R
0_
1F
1<
0G
1Y
1Z
1B
1>
15
1)
1h
0S
0\
0=
0C
0e
0O
1i
1T
0Z
1?
0>
0f
0P
17
1'
0U
0@
11
1%
1k
0g
0a
0Y
0W
1V
1K
0J
0F
0B
12
18
06
1$
1&
0(
0h
1e
1O
1f
1P
0i
01
07
0%
0'
0k
1g
08
16
0&
1(
#380000
b11111 !
b11101 !
b11100 !
0I
1:
1*
0Q
0V
0K
1\
1C
05
0)
0g
0b
1X
0L
1]
1D
06
0(
1c
1h
1M
1d
0j
1N
1k
0d
1j
0N
0e
0O
18
1&
1e
1O
0f
0P
1f
1P
11
1%
1i
1g
01
17
16
0%
1'
1(
0i
0g
07
06
0'
0(
#385000
b11101 !
0*
1Q
15
1)
#390000
b11001 !
b11011 !
b11010 !
1I
0;
1*
0Q
1V
1K
0R
1_
0<
1G
05
0)
1g
1b
0X
1L
0\
1`
0C
1H
16
1(
0c
0M
0]
0D
1i
17
1'
0k
08
0&
#395000
b11011 !
0*
1Q
15
1)
#400000
b1011 !
b11 !
b1 !
b0 !
0I
0:
09
1*
0Q
0V
0K
1S
1\
1=
1C
0T
1Z
0?
1>
05
0)
0g
0b
1X
0L
0Z
1]
0>
1D
1U
1[
1@
1A
06
0(
0h
0[
1d
0j
0A
1N
0`
0]
0e
0H
0D
0O
02
0$
1k
1c
1h
0d
1j
0f
1M
0N
0P
18
1&
0i
0k
0j
1e
1O
11
07
08
1%
0'
0&
1i
1k
1g
1f
1P
17
18
16
1'
1&
1(
0k
01
08
0%
0&
0i
0g
07
06
0'
0(
#405000
b100 !
b101 !
1;
0*
1Q
1a
1R
0_
1F
1<
0G
15
1)
0c
0h
0S
0\
0M
0=
0C
1i
1j
1Z
1>
17
1'
#410000
b111 !
b110 !
1I
1*
0Q
1W
1J
05
0)
1g
1b
0X
1L
16
1(
1h
#415000
b111 !
0*
1Q
15
1)
#420000
b1111 !
b1011 !
b1001 !
b1000 !
0I
0;
1:
1*
0Q
0W
0J
0a
0R
1_
0F
0<
1G
1^
1\
1E
1C
05
0)
0g
0b
1X
0L
0h
0\
0C
1d
0j
1N
06
0(
0i
1k
1c
1h
1M
0e
0O
07
18
0'
1&
0d
1j
0N
0f
0P
1e
1O
11
1%
1i
1g
1f
1P
17
16
1'
1(
01
0%
0i
0g
07
06
0'
0(
#425000
b11000 !
b11001 !
19
0*
1Q
1Y
1T
0Z
1B
1?
0>
15
1)
0e
0U
0O
0@
0f
1`
0^
0Y
0P
1H
0E
0B
12
1$
0c
0h
0j
1e
0M
1O
11
1%
1i
1g
1j
1f
1P
17
16
1'
1(
0i
0k
01
07
08
0%
0'
0&
1i
0g
17
06
1'
0(
#430000
b11011 !
b11010 !
1I
1*
0Q
1V
1K
05
0)
1g
1b
0X
1L
16
1(
1h
#435000
b11110 !
b11111 !
1;
0*
1Q
1R
0_
1<
0G
15
1)
1\
0`
1C
0H
1]
0h
1D
0i
1d
0j
1N
07
0'
1k
0e
0O
18
1&
0f
0P
11
1%
0k
0g
08
06
0&
0(
#440000
b10111 !
b10101 !
b10100 !
0I
0:
1*
0Q
0V
0K
0\
0C
05
0)
0b
1X
0L
0]
0D
1c
1h
1M
0d
1j
0N
1g
0j
1e
1O
16
1(
1i
1k
1f
1P
17
18
1'
1&
0k
01
08
0%
0&
0i
0g
07
06
0'
0(
#445000
b10101 !
0*
1Q
15
1)
#450000
b101 !
b1 !
b11 !
b10 !
1I
0;
09
1*
0Q
1V
1K
0R
1_
0<
1G
0T
1Z
0?
1>
05
0)
1g
1b
0X
1L
1S
1\
1`
1=
1C
1H
1U
1[
1@
1A
16
1(
0c
0M
0Z
0>
0`
0[
1W
0V
0e
0K
1J
0H
0A
0O
02
0$
1i
1j
0h
1e
0f
1O
0P
17
1'
0i
1f
1P
11
07
1%
0'
1k
0g
01
18
06
0%
1&
0(
0k
1g
08
16
0&
1(
#455000
b11 !
0*
1Q
15
1)
#460000
b1011 !
b1001 !
b1000 !
0I
1:
1*
0Q
0W
0J
1^
0S
0\
1E
0=
0C
05
0)
0g
0b
1X
0L
1d
0j
1Z
1N
1>
06
0(
1k
1c
1h
1M
0e
0O
18
1&
0d
1j
0N
0f
0P
1e
1O
11
1%
1i
1g
1f
1P
17
16
1'
1(
01
0%
0i
0g
07
06
0'
0(
#465000
b1100 !
b1101 !
1;
0*
1Q
1a
1R
0_
1F
1<
0G
15
1)
0c
0h
1\
0M
1C
1i
1d
0j
1N
17
1'
0e
0O
0f
0P
11
1%
0k
0i
1g
08
07
16
0&
0'
1(
#470000
b1111 !
b1110 !
1I
1*
0Q
1W
1J
05
0)
1b
0X
1L
1h
0g
06
0(
1i
17
1'
#475000
b11110 !
b11111 !
19
0*
1Q
1Y
1T
0Z
1B
1?
0>
15
1)
0U
0@
0a
0^
1]
0Y
0W
1V
1K
0J
0F
0E
1D
0B
12
1$
0h
0i
07
0'
#480000
b10111 !
b10011 !
b10001 !
b10000 !
0I
0;
0:
1*
0Q
0V
0K
0R
1_
0<
1G
0\
0C
05
0)
0b
1X
0L
1S
1\
1`
1=
1C
1H
0]
0D
0T
1Z
1]
0?
1>
1D
0d
1j
0N
1g
1U
1[
1d
0j
1@
1A
1N
1e
1O
16
1(
1k
0`
0]
0[
1Y
0e
0H
0D
1B
0A
0O
1f
1P
02
18
0$
1&
0k
1c
1h
0d
1j
0f
1M
0N
0P
01
08
0%
0&
0g
0j
11
06
1%
0(
1i
1k
1g
17
18
16
1'
1&
1(
0k
08
0&
#485000
b10001 !
0*
1Q
15
1)
#490000
b10011 !
b10010 !
1I
1*
0Q
1W
1J
05
0)
1b
0X
1L
0c
0h
0M
0g
1j
06
0(
0i
07
0'
1k
18
1&
